…
``` r
bmi_recipe <- 
  recipe(bmi_recode ~ ., data = train_data) %>% 
  update_role(ADM_STUDY_ID, new_role = "ID") %>% 
  update_role(ID, new_role = "ID") %>% 
  step_normalize(all_numeric_predictors()) %>% 
  step_dummy(all_nominal_predictors()) %>% 
  step_zv(all_predictors()) 

summary(bmi_recipe)
```

```
## # A tibble: 94 × 4
##    variable                type      role      source  
##    <chr>                   <list>    <chr>     <chr>   
##  1 ID                      <chr [3]> ID        original
##  2 ADM_STUDY_ID            <chr [2]> ID        original
##  3 SDC_GENDER              <chr [3]> predictor original
##  4 SDC_AGE_CALC            <chr [2]> predictor original
##  5 SDC_MARITAL_STATUS      <chr [3]> predictor original
##  6 SDC_EDU_LEVEL           <chr [3]> predictor original
##  7 SDC_EDU_LEVEL_AGE       <chr [2]> predictor original
##  8 SDC_INCOME              <chr [3]> predictor original
##  9 SDC_INCOME_IND_NB       <chr [3]> predictor original
## 10 SDC_HOUSEHOLD_ADULTS_NB <chr [3]> predictor original
## # ℹ 84 more rows
```
…
### Variable importance 


``` r
final_ridge_model <- final_ridge_model_workflow %>%
                        fit(data = train_data)

final_ridge_model %>%
        extract_fit_parsnip() %>%
        tidy()
```

```
## # A tibble: 201 × 3
##    term                   estimate penalty
##    <chr>                     <dbl>   <dbl>
##  1 (Intercept)             26.4     0.0774
##  2 SDC_AGE_CALC             0       0.0774
##  3 SDC_EDU_LEVEL_AGE        0.0178  0.0774
##  4 PA_TOTAL_SHORT          -0.122   0.0774
##  5 PSE_ADULT_WRK_DURATION   0.0634  0.0774
##  6 SDC_GENDER_X2           -0.364   0.0774
##  7 SDC_MARITAL_STATUS_X2    0       0.0774
##  8 SDC_MARITAL_STATUS_X3    0       0.0774
##  9 SDC_MARITAL_STATUS_X4   -0.243   0.0774
## 10 SDC_MARITAL_STATUS_X5    0       0.0774
## # ℹ 191 more rows
```
…
