…
logistic_workflow <- workflow() %>% 
          add_model(logistic_model) %>% 
          add_recipe(diabetes_recipe) %>% 
          tune_grid(resamples = folds,
                    control = control_grid(save_pred = TRUE, 
                                            verbose = FALSE)) ## Edit for running live

collect_metrics(logistic_workflow) 
```

```
## # A tibble: 30 × 8
##          penalty mixture .metric     .estimator  mean     n  std_err .config    
##            <dbl>   <dbl> <chr>       <chr>      <dbl> <int>    <dbl> <chr>      
##  1 0.0000000001    0.367 accuracy    binary     0.673     5 0.00241  pre0_mod01…
##  2 0.0000000001    0.367 brier_class binary     0.211     5 0.000710 pre0_mod01…
##  3 0.0000000001    0.367 roc_auc     binary     0.659     5 0.00434  pre0_mod01…
##  4 0.00000000129   0.789 accuracy    binary     0.673     5 0.00250  pre0_mod02…
##  5 0.00000000129   0.789 brier_class binary     0.211     5 0.000714 pre0_mod02…
##  6 0.00000000129   0.789 roc_auc     binary     0.659     5 0.00441  pre0_mod02…
##  7 0.0000000167    0.05  accuracy    binary     0.673     5 0.00253  pre0_mod03…
##  8 0.0000000167    0.05  brier_class binary     0.211     5 0.000701 pre0_mod03…
##  9 0.0000000167    0.05  roc_auc     binary     0.659     5 0.00425  pre0_mod03…
## 10 0.000000215     0.472 accuracy    binary     0.673     5 0.00242  pre0_mod04…
## # ℹ 20 more rows
```
…
```
## i Creating pre-processing data to finalize 1 unknown parameter: "mtry"
```

``` r
collect_metrics(rf_workflow) 
```

```
## # A tibble: 30 × 9
##     mtry trees min_n .metric     .estimator  mean     n  std_err .config        
##    <int> <int> <int> <chr>       <chr>      <dbl> <int>    <dbl> <chr>          
##  1     1   667    18 accuracy    binary     0.771     5 0.00289  pre0_mod01_pos…
##  2     1   667    18 brier_class binary     0.201     5 0.000578 pre0_mod01_pos…
##  3     1   667    18 roc_auc     binary     0.628     5 0.00454  pre0_mod01_pos…
##  4     2  1777    23 accuracy    binary     0.838     5 0.00224  pre0_mod02_pos…
##  5     2  1777    23 brier_class binary     0.148     5 0.000715 pre0_mod02_pos…
##  6     2  1777    23 roc_auc     binary     0.634     5 0.00386  pre0_mod02_pos…
##  7     4   445    35 accuracy    binary     0.896     5 0.00199  pre0_mod03_pos…
##  8     4   445    35 brier_class binary     0.108     5 0.000913 pre0_mod03_pos…
##  9     4   445    35 roc_auc     binary     0.636     5 0.00291  pre0_mod03_pos…
## 10     5  1111     2 accuracy    binary     0.910     5 0.00192  pre0_mod04_pos…
## # ℹ 20 more rows
```
…
```
## maximum number of iterations reached 0.01048742 0.01048657maximum number of iterations reached 6.787841e-05 6.787842e-05maximum number of iterations reached 0.02088216 0.02086786
```

```
## There were issues with some computations   A: x6
```

``` r
collect_metrics(svm_workflow) 
```

```
## # A tibble: 30 × 8
##        cost    rbf_sigma .metric     .estimator  mean     n  std_err .config    
##       <dbl>        <dbl> <chr>       <chr>      <dbl> <int>    <dbl> <chr>      
##  1 0.000977 0.000000215  accuracy    binary     0.924     5 0.00203  pre0_mod01…
##  2 0.000977 0.000000215  brier_class binary     0.228     5 0.000102 pre0_mod01…
##  3 0.000977 0.000000215  roc_auc     binary     0.657     5 0.00521  pre0_mod01…
##  4 0.00310  0.00599      accuracy    binary     0.868     5 0.00568  pre0_mod02…
##  5 0.00310  0.00599      brier_class binary     0.292     5 0.00170  pre0_mod02…
##  6 0.00310  0.00599      roc_auc     binary     0.657     5 0.00437  pre0_mod02…
##  7 0.00984  0.0000000001 accuracy    binary     0.924     5 0.00203  pre0_mod03…
##  8 0.00984  0.0000000001 brier_class binary     0.228     5 0.000107 pre0_mod03…
##  9 0.00984  0.0000000001 roc_auc     binary     0.655     5 0.00429  pre0_mod03…
## 10 0.0312   0.00000278   accuracy    binary     0.924     5 0.00203  pre0_mod04…
## # ℹ 20 more rows
```
…
