…
``` r
diabetes_fit_oversamp <- 
  diabetes_wflow_oversamp %>% 
  fit(data = train_data)
```


``` r
diabetes_fit_oversamp %>% 
  extract_fit_parsnip() %>% 
  tidy()
```

```
## # A tibble: 30 × 5
##    term                   estimate std.error statistic   p.value
##    <chr>                     <dbl>     <dbl>     <dbl>     <dbl>
##  1 (Intercept)             -0.137    0.00993    -13.8  4.63e- 43
##  2 SDC_AGE_CALC             0.384    0.0118      32.4  6.86e-231
##  3 PM_BMI_SR                0.183    0.0103      17.8  6.42e- 71
##  4 PA_TOTAL_SHORT          -0.0869   0.0102      -8.56 1.11e- 17
##  5 PSE_ADULT_WRK_DURATION   0.0643   0.0112       5.72 1.05e-  8
##  6 SDC_EDU_LEVEL_AGE        0.0265   0.0112       2.36 1.83e-  2
##  7 SDC_EDU_LEVEL_X1         0.0899   0.0368       2.44 1.45e-  2
##  8 SDC_EDU_LEVEL_X2         0.524    0.129        4.06 4.93e-  5
##  9 SDC_EDU_LEVEL_X3         0.328    0.0900       3.65 2.61e-  4
## 10 SDC_EDU_LEVEL_X4         0.603    0.138        4.36 1.31e-  5
## # ℹ 20 more rows
```
…
