…
Finally, in order to apply these computations to our data and extract the principal components, we will use bake by providing two arguments  

* A prepped (trained) recipe
* The data we would like to apply these computations to


``` r
pca_baked <- bake(pca_prepared, data)
pca_baked
```

```
## # A tibble: 12,432 × 8
##    ID         SDC_INCOME SDC_GENDER     PC1    PC2     PC3     PC4      PC5
##    <chr>      <fct>      <fct>        <dbl>  <dbl>   <dbl>   <dbl>    <dbl>
##  1 SYN_58624  3          2           0.631  -1.63  -0.386  -0.762  -0.0918 
##  2 SYN_58628  3          2           0.319   0.122  1.23   -1.16    0.825  
##  3 SYN_586217 4          2           1.06    0.400  0.364  -0.488   0.763  
##  4 SYN_586219 4          2          -0.340  -2.80   0.768   0.822   0.0300 
##  5 SYN_586221 5          2          -0.128   0.541 -0.394  -0.968   1.92   
##  6 SYN_586230 5          2          -0.0295 -1.24   1.09   -0.0989 -0.00313
##  7 SYN_586246 5          1          -1.19    0.345  0.517  -0.444   0.153  
##  8 SYN_586250 4          2          -1.33   -0.910  1.13    0.133   0.721  
##  9 SYN_586256 7          1          -0.349  -1.81  -0.0391 -0.539   0.387  
## 10 SYN_586263 4          2          -0.392  -1.22  -0.542   1.20    0.296  
## # ℹ 12,422 more rows
```
…
