…
```
## Warning: The `...` are not used in this function but 1 unnamed object was
## passed.
```

``` r
collect_metrics(logistic_workflow_train) 
```

```
## # A tibble: 30 × 8
##          penalty mixture .metric     .estimator  mean     n  std_err .config    
##            <dbl>   <dbl> <chr>       <chr>      <dbl> <int>    <dbl> <chr>      
##  1 0.0000000001    0.367 accuracy    binary     0.670     5 0.00226  pre0_mod01…
##  2 0.0000000001    0.367 brier_class binary     0.212     5 0.000732 pre0_mod01…
##  3 0.0000000001    0.367 roc_auc     binary     0.659     5 0.00573  pre0_mod01…
##  4 0.00000000129   0.789 accuracy    binary     0.670     5 0.00217  pre0_mod02…
##  5 0.00000000129   0.789 brier_class binary     0.212     5 0.000713 pre0_mod02…
##  6 0.00000000129   0.789 roc_auc     binary     0.658     5 0.00571  pre0_mod02…
##  7 0.0000000167    0.05  accuracy    binary     0.670     5 0.00233  pre0_mod03…
##  8 0.0000000167    0.05  brier_class binary     0.212     5 0.000732 pre0_mod03…
##  9 0.0000000167    0.05  roc_auc     binary     0.659     5 0.00573  pre0_mod03…
## 10 0.000000215     0.472 accuracy    binary     0.670     5 0.00213  pre0_mod04…
## # ℹ 20 more rows
```
…
```
## Warning: The `...` are not used in this function but 1 unnamed object was
## passed.
```

``` r
collect_metrics(logistic_workflow_validation) 
```

```
## # A tibble: 30 × 8
##          penalty mixture .metric     .estimator  mean     n  std_err .config    
##            <dbl>   <dbl> <chr>       <chr>      <dbl> <int>    <dbl> <chr>      
##  1 0.0000000001    0.367 accuracy    binary     0.670     5 0.00226  pre0_mod01…
##  2 0.0000000001    0.367 brier_class binary     0.212     5 0.000732 pre0_mod01…
##  3 0.0000000001    0.367 roc_auc     binary     0.659     5 0.00573  pre0_mod01…
##  4 0.00000000129   0.789 accuracy    binary     0.670     5 0.00217  pre0_mod02…
##  5 0.00000000129   0.789 brier_class binary     0.212     5 0.000713 pre0_mod02…
##  6 0.00000000129   0.789 roc_auc     binary     0.658     5 0.00571  pre0_mod02…
##  7 0.0000000167    0.05  accuracy    binary     0.670     5 0.00233  pre0_mod03…
##  8 0.0000000167    0.05  brier_class binary     0.212     5 0.000732 pre0_mod03…
##  9 0.0000000167    0.05  roc_auc     binary     0.659     5 0.00573  pre0_mod03…
## 10 0.000000215     0.472 accuracy    binary     0.670     5 0.00213  pre0_mod04…
## # ℹ 20 more rows
```
…
